\relax 
\catcode`"\active
\select@language{english}
\@writefile{toc}{\select@language{english}}
\@writefile{lof}{\select@language{english}}
\@writefile{lot}{\select@language{english}}
\@writefile{toc}{\contentsline {section}{\numberline {1}\IeC {\CYRD }\IeC {\cyro }\IeC {\cyrm }\IeC {\cyra }\IeC {\cyrsh }\IeC {\cyrn }\IeC {\cyre }\IeC {\cyre } \IeC {\cyrz }\IeC {\cyra }\IeC {\cyrd }\IeC {\cyra }\IeC {\cyrn }\IeC {\cyri }\IeC {\cyre } - 3}{1}}
